Apresentação-1-se.knit
…
2017-05-01
64833

2017-06-01
63840

4.3 Transformando para
formato tstible

serie <- cimento %>%
  mutate(Data = yearmonth(Data)) %>%
  as_tsibble(index = Data)
serie

## # A tsibble: 50 x 2 [1M]
##        Data Consumo
##       <mth>   <dbl>
##  1 2017 jan   70672
##  2 2017 fev   58962
##  3 2017 mar   73459
##  4 2017 abr   59150
##  5 2017 mai   64833
##  6 2017 jun   63840
##  7 2017 jul   61721
##  8 2017 ago   69240
##  9 2017 set   70048
## 10 2017 out   67172
## # … with 40 more rows
…
